{
	"info": {
		"_postman_id": "3f0e367c-f6e8-4a06-b52d-0dd32b774620",
		"name": "Seguradoras",
		"schema": "https://schema.getpostman.com/json/collection/v2.0.0/collection.json"
	},
	"item": [
		{
			"name": "Login",
			"event": [
				{
					"listen": "test",
					"script": {
						"id": "0cd2f0e6-bba8-4002-b2d0-69d9b096164a",
						"exec": [
							"pm.environment.set(\"Token\",postman.getResponseHeader(\"Authorization\"))"
						],
						"type": "text/javascript"
					}
				}
			],
			"request": {
				"auth": {
					"type": "bearer",
					"bearer": {
						"token": ""
					}
				},
				"method": "POST",
				"header": [
					{
						"key": "Content-Type",
						"name": "Content-Type",
						"value": "application/json",
						"type": "text"
					}
				],
				"body": {
					"mode": "raw",
					"raw": "{\n\t\"username\": \"admin\",\n\t\"password\":\"password\"\n}"
				},
				"url": "http://localhost:8080/login"
			},
			"response": []
		},
		{
			"name": "Salvar Novo Estado",
			"request": {
				"auth": {
					"type": "bearer",
					"bearer": {
						"token": "{{Token}}"
					}
				},
				"method": "POST",
				"header": [
					{
						"key": "Content-Type",
						"name": "Content-Type",
						"value": "application/json",
						"type": "text"
					}
				],
				"body": {
					"mode": "raw",
					"raw": "{\n\t\"nome\" : \"Rio Grande Do Sul\"\n\t\n}"
				},
				"url": "http://localhost:8080/api/estado/novoEstado",
				"description": "Salvar novo Estado"
			},
			"response": []
		},
		{
			"name": "Salvar Nova Cidade",
			"request": {
				"auth": {
					"type": "bearer",
					"bearer": {
						"token": "{{Token}}"
					}
				},
				"method": "POST",
				"header": [
					{
						"key": "Content-Type",
						"name": "Content-Type",
						"value": "application/json",
						"type": "text"
					}
				],
				"body": {
					"mode": "raw",
					"raw": "{\n\t\"nome\" : \"Porto Alegre\",\n\t\"estado\" : {\n    \t\"id\": 1\n\t}\n}"
				},
				"url": "http://localhost:8080/api/Cidade/novaCidade",
				"description": "Salva uma nova Cidade"
			},
			"response": []
		},
		{
			"name": "Salvar Novo Bairro",
			"request": {
				"auth": {
					"type": "bearer",
					"bearer": {
						"token": "{{Token}}"
					}
				},
				"method": "POST",
				"header": [
					{
						"key": "Content-Type",
						"name": "Content-Type",
						"value": "application/json",
						"type": "text"
					}
				],
				"body": {
					"mode": "raw",
					"raw": "{\n\t\"nome\": \"Auxiliadora\",\n\t\"cidade\" : {\n\t\"id\": 1\n\t}\n\t\n}"
				},
				"url": "http://localhost:8080/api/Bairro/novoBairro"
			},
			"response": []
		},
		{
			"name": "Salvar Novo Endereco",
			"request": {
				"method": "POST",
				"header": [
					{
						"key": "Content-Type",
						"name": "Content-Type",
						"value": "application/json",
						"type": "text"
					}
				],
				"body": {
					"mode": "raw",
					"raw": "{\n\t\"logradouro\" : \"rua do quero quero\",\n\t\"numero\": 29,\n\t\"complemento\" : \"perto do zaffari\",\n\t\"bairro\" : {\n\t\t\"id\": 1\n\t}\n\n}"
				},
				"url": "http://localhost:8080/api/Endereco/novoEndereco"
			},
			"response": []
		},
		{
			"name": "Salvar Servico",
			"request": {
				"method": "POST",
				"header": [
					{
						"key": "Content-Type",
						"name": "Content-Type",
						"value": "application/json",
						"type": "text"
					}
				],
				"body": {
					"mode": "raw",
					"raw": "{\n\t\"nome\" : \"Lavar Carpete\",\n\t\"descricao\": \"lavagem geral todos carpetes do carro\",\n\t\"valorPadrao\": 200\n\t\n}"
				},
				"url": "http://localhost:8080/api/Servicos/novoServico"
			},
			"response": []
		},
		{
			"name": "Salvar Nova Pessoa",
			"request": {
				"method": "POST",
				"header": [
					{
						"key": "Content-Type",
						"name": "Content-Type",
						"value": "application/json",
						"type": "text"
					}
				],
				"body": {
					"mode": "raw",
					"raw": "{\n\t\"nome\": \"Vinicius Pulgatti\",\n\t\"cpf\": \"000000000\",\n\t\"pai\": \"Andre\",\n\t\"mae\": \"viviane\",\n\t\"telefone\": 5151515151,\n\t\"email\": \"vini@vini\"\n\t\n\t\n}"
				},
				"url": "http://localhost:8080/api/Pessoas/novaPessoa"
			},
			"response": []
		},
		{
			"name": "Salvar Seguradora",
			"request": {
				"method": "POST",
				"header": [
					{
						"key": "Content-Type",
						"name": "Content-Type",
						"value": "application/json",
						"type": "text"
					}
				],
				"body": {
					"mode": "raw",
					"raw": "{\n\t\"nome\": \"Segrador A\",\n\t\"cnpj\": 9278392730163,\n\t\"enderecoSeguradora\" : {\n\t\t\"id\": 1\n\t},\n\t\"servicos\" : [{\n\t\t\"id\": 1\n\t}]\n}"
				},
				"url": "http://localhost:8080/api/Seguradora/novaSeguradora"
			},
			"response": []
		},
		{
			"name": "Salvar novo Endereco Seguradora",
			"request": {
				"auth": {
					"type": "bearer",
					"bearer": {
						"token": "{{Token}}"
					}
				},
				"method": "POST",
				"header": [
					{
						"key": "Content-Type",
						"name": "Content-Type",
						"value": "application/json",
						"type": "text"
					}
				],
				"body": {
					"mode": "raw",
					"raw": "{\n\t\"endereco\" : {\"id\" : 1},\n\t\"seguradora\" : {\"id\" : 1}\n\t\n}"
				},
				"url": "http://localhost:8080/api/EnderecoSeguradora/novoEnderecoSeg"
			},
			"response": []
		},
		{
			"name": "Criar Corretor",
			"request": {
				"method": "POST",
				"header": [
					{
						"key": "Content-Type",
						"name": "Content-Type",
						"value": "application/json",
						"type": "text"
					}
				],
				"body": {
					"mode": "raw",
					"raw": "{\t \n    \"nome\": \"Vinicius Pulgatti\",\n    \"cpf\": 0,\n    \"pai\": \"Andre\",\n    \"mae\": \"viviane\",\n    \"telefone\": 5151515151,\n    \"email\": \"vini@vini\",\n\t\"cargo\" : \"gerente geral\",\n\t\"comissao\" : 1.4563\n}"
				},
				"url": "http://localhost:8080/api/Corretor/novoCorretor"
			},
			"response": []
		},
		{
			"name": "Salvar Segurados",
			"request": {
				"method": "POST",
				"header": [
					{
						"key": "Content-Type",
						"name": "Content-Type",
						"value": "application/json",
						"type": "text"
					}
				],
				"body": {
					"mode": "raw",
					"raw": "{\t \n    \"nome\": \"Vinicius Pulgatti\",\n    \"cpf\": 0,\n    \"pai\": \"Andre\",\n    \"mae\": \"viviane\",\n    \"telefone\": 5151515151,\n    \"email\": \"vini@vini\",\n\t\"qtdServicos\" : 3\n}"
				},
				"url": "http://localhost:8080/api/Segurados/novoSegurados"
			},
			"response": []
		},
		{
			"name": "Salvar servicoContratado",
			"request": {
				"method": "POST",
				"header": [
					{
						"key": "Content-Type",
						"name": "Content-Type",
						"type": "text",
						"value": "application/json"
					}
				],
				"body": {
					"mode": "raw",
					"raw": "{\n\t\"descricao\" : \"Servico 3\",\n\t\"valor\" : 125,\n\t\"servicos\" : {\n\t\t\"id\" : 1 \n\t}\n}"
				},
				"url": "http://localhost:8080/api/ServicoContratado/novoServicoContratado"
			},
			"response": []
		},
		{
			"name": "Mostar Estado",
			"request": {
				"method": "GET",
				"header": [],
				"body": {
					"mode": "raw",
					"raw": ""
				},
				"url": "http://localhost:8080/api/estado/",
				"description": "get estado"
			},
			"response": []
		},
		{
			"name": "Mostar Cidade",
			"request": {
				"method": "GET",
				"header": [],
				"body": {
					"mode": "raw",
					"raw": ""
				},
				"url": "http://localhost:8080/api/Cidade/",
				"description": "get para cidade"
			},
			"response": []
		},
		{
			"name": "Mostrar Bairro",
			"request": {
				"method": "GET",
				"header": [],
				"body": {
					"mode": "raw",
					"raw": ""
				},
				"url": "http://localhost:8080/api/Bairro/"
			},
			"response": []
		},
		{
			"name": "Mostrar Endereco",
			"protocolProfileBehavior": {
				"disableBodyPruning": true
			},
			"request": {
				"method": "GET",
				"header": [
					{
						"key": "Content-Type",
						"name": "Content-Type",
						"value": "application/json",
						"type": "text"
					}
				],
				"body": {
					"mode": "raw",
					"raw": ""
				},
				"url": "http://localhost:8080/api/Endereco/"
			},
			"response": []
		},
		{
			"name": "Mostrar Pessoas",
			"request": {
				"method": "GET",
				"header": [],
				"body": {
					"mode": "raw",
					"raw": ""
				},
				"url": "http://localhost:8080/api/Pessoas/"
			},
			"response": []
		},
		{
			"name": "Mostra Seguradora",
			"request": {
				"method": "GET",
				"header": [],
				"body": {
					"mode": "raw",
					"raw": ""
				},
				"url": "http://localhost:8080/api/Seguradora/"
			},
			"response": []
		},
		{
			"name": "Mostrar EnderecoSeguradora",
			"request": {
				"method": "GET",
				"header": [],
				"body": {
					"mode": "raw",
					"raw": ""
				},
				"url": "http://localhost:8080/api/EnderecoSeguradora/"
			},
			"response": []
		},
		{
			"name": "Mostrar Corretor",
			"request": {
				"method": "GET",
				"header": [],
				"body": {
					"mode": "raw",
					"raw": ""
				},
				"url": "http://localhost:8080/api/Corretor/"
			},
			"response": []
		},
		{
			"name": "Mostra Segurados",
			"request": {
				"method": "GET",
				"header": [],
				"body": {
					"mode": "raw",
					"raw": ""
				},
				"url": "http://localhost:8080/api/Segurados/"
			},
			"response": []
		},
		{
			"name": "Mostrar Servico",
			"request": {
				"method": "GET",
				"header": [],
				"body": {
					"mode": "raw",
					"raw": ""
				},
				"url": "http://localhost:8080/api/Servicos/"
			},
			"response": []
		},
		{
			"name": "Editar Estado",
			"request": {
				"method": "PUT",
				"header": [
					{
						"key": "Content-Type",
						"name": "Content-Type",
						"value": "application/json",
						"type": "text"
					}
				],
				"body": {
					"mode": "raw",
					"raw": "{\n\t\"nome\" : \"Santa catarina\"\n\t\n}"
				},
				"url": "http://localhost:8080/api/estado/editar/1"
			},
			"response": []
		},
		{
			"name": "Editar cidade",
			"request": {
				"method": "PUT",
				"header": [
					{
						"key": "Content-Type",
						"name": "Content-Type",
						"value": "application/json",
						"type": "text"
					}
				],
				"body": {
					"mode": "raw",
					"raw": "{\n\t\"nome\" : \"Alvorada\"\n\t\n}"
				},
				"url": "http://localhost:8080/api/Cidade/editar/1"
			},
			"response": []
		},
		{
			"name": "EditarBairro",
			"request": {
				"method": "PUT",
				"header": [
					{
						"key": "Content-Type",
						"name": "Content-Type",
						"value": "application/json",
						"type": "text"
					}
				],
				"body": {
					"mode": "raw",
					"raw": "{\n        \"nome\": \"Joao\"\n    \n}"
				},
				"url": "http://localhost:8080/api/Bairro/editar/1"
			},
			"response": []
		},
		{
			"name": "Editar Endereco",
			"event": [
				{
					"listen": "prerequest",
					"script": {
						"id": "454c4ffe-4fd7-4d11-9827-a8773f21cc63",
						"exec": [
							""
						],
						"type": "text/javascript"
					}
				}
			],
			"request": {
				"method": "PUT",
				"header": [
					{
						"key": "Content-Type",
						"name": "Content-Type",
						"value": "application/json",
						"type": "text"
					}
				],
				"body": {
					"mode": "raw",
					"raw": "{\n        \"id\": 1,\n        \"logradouro\": \"rua\",\n        \"numero\": 29,\n        \"complemento\": \"perto do zaffari\",\n        \"bairro\": {\n            \"id\": 1,\n            \"nome\": \"Joao\",\n            \"cidade\": null\n            \n        }\n}\n"
				},
				"url": "http://localhost:8080/api/Endereco/editar/1"
			},
			"response": []
		},
		{
			"name": "Editar Pessoas",
			"request": {
				"method": "PUT",
				"header": [
					{
						"key": "Content-Type",
						"name": "Content-Type",
						"value": "application/json",
						"type": "text"
					}
				],
				"body": {
					"mode": "raw",
					"raw": " {\n\n        \"nome\": \"Pulgatti\",\n        \"cpf\": 0,\n        \"pai\": \"Andre\",\n        \"mae\": \"viviane\",\n        \"telefone\": 5151515151,\n        \"email\": \"vini@vini\",\n        \"endereco\": []\n    }"
				},
				"url": "http://localhost:8080/api/Pessoas/editar/1"
			},
			"response": []
		},
		{
			"name": "Editar Seguradora",
			"request": {
				"method": "PUT",
				"header": [
					{
						"key": "Content-Type",
						"name": "Content-Type",
						"value": "application/json",
						"type": "text"
					}
				],
				"body": {
					"mode": "raw",
					"raw": "{\n        \"nome\": \"A\",\n        \"cnpj\": 9278392730163\n     \n}"
				},
				"url": "http://localhost:8080/api/Seguradora/editar/1"
			},
			"response": []
		},
		{
			"name": "Editar Corretor",
			"request": {
				"method": "PUT",
				"header": [
					{
						"key": "Content-Type",
						"name": "Content-Type",
						"value": "application/json",
						"type": "text"
					}
				],
				"body": {
					"mode": "raw",
					"raw": "{\n    \"nome\": \"Vinicius Pulgatti\",\n    \"cpf\": 0,\n    \"pai\": \"Andre\",\n    \"mae\": \"viviane\",\n    \"telefone\": 5151515151,\n    \"email\": \"vini@vini\",\n    \"cargo\": \"assistente\",\n    \"comissao\": 1.456343\n\n}"
				},
				"url": "http://localhost:8080/api/Corretor/editar/1"
			},
			"response": []
		},
		{
			"name": "Editar Segurados",
			"request": {
				"method": "PUT",
				"header": [],
				"body": {
					"mode": "raw",
					"raw": ""
				},
				"url": "http://localhost:8080/api/Segurados/editar/1"
			},
			"response": []
		},
		{
			"name": "Editar Servico",
			"request": {
				"method": "PUT",
				"header": [
					{
						"key": "Content-Type",
						"name": "Content-Type",
						"value": "application/json",
						"type": "text"
					}
				],
				"body": {
					"mode": "raw",
					"raw": " {\n        \"id\": 1,\n        \"nome\": \"Lavar Carro Com cera\",\n        \"descricao\": \"lavagem geral todos carpetes do carro\",\n        \"valorPadrao\": 200,\n        \"servicoContratado\": [],\n        \"seguradora\": [\n            {\n                \"id\": 1,\n                \"nome\": \"Segrador A\",\n                \"cnpj\": 9278392730163,\n                \"enderecoSeguradora\": null,\n                \"servicoContratado\": [],\n                \"servicos\": [\n                    {\n                        \"id\": 1,\n                        \"nome\": \"Lavar Carpete\",\n                        \"descricao\": \"lavagem geral todos carpetes do carro\",\n                        \"valorPadrao\": 200,\n                        \"servicoContratado\": [],\n                        \"seguradora\": [\n                            1\n                        ]\n                    }\n                ]\n            }\n        ]\n    }"
				},
				"url": "http://localhost:8080/api/Servicos/editar/1"
			},
			"response": []
		}
	],
	"auth": {
		"type": "bearer",
		"bearer": {
			"token": "{{Token}}"
		}
	},
	"event": [
		{
			"listen": "prerequest",
			"script": {
				"id": "d179acf7-1b9e-4c56-8853-fa2515fdc9a9",
				"type": "text/javascript",
				"exec": [
					""
				]
			}
		},
		{
			"listen": "test",
			"script": {
				"id": "01793453-e0c4-45ac-bbce-e0174e75c78e",
				"type": "text/javascript",
				"exec": [
					""
				]
			}
		}
	]
}